Day 5
…
Session 3

Recall our question: Is there a relationship between the total population of a state and the average economic connectedness of counties in that state?

First step: Create a new variable which is the state? Seems simple. Hard to do!

Maybe ask ChatGPT? https://chat.openai.com/

TFs should not give out this answer! Let the students work on it! Let them struggle! Point them to the Primer. Did they read the Wrangling chapter? Did they learn about the stringr package? Did they learn about regular expressions? Did they do the assigned tutorials, especially Wrangling: Overview?

x |> 
  drop_na() |> 
  mutate(state = str_remove(county_name, ".*, ")) 

# A tibble: 2,942 × 5
   county county_name       pop2018 ec_county state  
    <dbl> <chr>               <dbl>     <dbl> <chr>  
 1   1001 Autauga, Alabama    55200     0.721 Alabama
 2   1003 Baldwin, Alabama   208107     0.743 Alabama
 3   1005 Barbour, Alabama    25782     0.414 Alabama
 4   1007 Bibb, Alabama       22527     0.632 Alabama
 5   1009 Blount, Alabama     57645     0.726 Alabama
 6   1011 Bullock, Alabama    10352     0.355 Alabama
 7   1013 Butler, Alabama     20025     0.460 Alabama
 8   1015 Calhoun, Alabama   115098     0.602 Alabama
 9   1017 Chambers, Alabama   33826     0.498 Alabama
10   1019 Cherokee, Alabama   25853     0.605 Alabama
# … with 2,932 more rows

Session 4

Calculate the state-level statistics. Send them to rooms to do this for themselves. Bring them back.

Discuss the traditional approach of group_by() and the cool new approach of .by.

x |> 
  drop_na() |> 
  mutate(state = str_remove(county_name, ".*, ")) |> 
  group_by(state) |> 
  summarise(pop_state = sum(pop2018),
            avg_ec = mean(ec_county))

# A tibble: 51 × 3
   state                pop_state avg_ec
   <chr>                    <dbl>  <dbl>
 1 Alabama                4855194  0.595
 2 Alaska                  712389  0.977
 3 Arizona                6946685  0.692
 4 Arkansas               2990671  0.690
 5 California            39147614  0.807
 6 Colorado               5498538  0.954
 7 Connecticut            3581504  0.949
 8 Delaware                949495  0.782
 9 District of Columbia    684498  0.996
10 Florida               20598139  0.665
# … with 41 more rows

x |> 
  drop_na() |> 
  mutate(state = str_remove(county_name, ".*, ")) |> 
  summarise(pop_state = sum(pop2018),
            avg_ec = mean(ec_county),
            .by = state)

# A tibble: 51 × 3
   state                pop_state avg_ec
   <chr>                    <dbl>  <dbl>
 1 Alabama                4855194  0.595
 2 Alaska                  712389  0.977
 3 Arizona                6946685  0.692
 4 Arkansas               2990671  0.690
 5 California            39147614  0.807
 6 Colorado               5498538  0.954
 7 Connecticut            3581504  0.949
 8 Delaware                949495  0.782
 9 District of Columbia    684498  0.996
10 Florida               20598139  0.665
# … with 41 more rows
…
