Day 6
…
Day 6

Overview

Use project which they were working with last class to answer the question with which we began the week:

Is there a relationship between the total population of a state and the average economic connectedness of counties in that state?

The below code should have been completed last class. Ideally, we noticed and discussed the missing data problem, but maybe not.

Session 1

Make sure everyone in the room has the basic set up working. We can now start a new code chunk and add a state variable.

# A tibble: 3,089 × 4
   county_name       pop2018 ec_county state  
   <chr>               <dbl>     <dbl> <chr>  
 1 Autauga, Alabama    55200     0.721 Alabama
 2 Baldwin, Alabama   208107     0.743 Alabama
 3 Barbour, Alabama    25782     0.414 Alabama
 4 Bibb, Alabama       22527     0.632 Alabama
 5 Blount, Alabama     57645     0.726 Alabama
 6 Bullock, Alabama    10352     0.355 Alabama
 7 Butler, Alabama     20025     0.460 Alabama
 8 Calhoun, Alabama   115098     0.602 Alabama
 9 Chambers, Alabama   33826     0.498 Alabama
10 Cherokee, Alabama   25853     0.605 Alabama
# ℹ 3,079 more rows

Explain execute: echo: false.

Session 2

Tell them to calculate the average county_ec for each state. Send them to rooms to do this for themselves. Bring them back.

x |> 
  mutate(state = str_replace(county_name, ".*, ", "")) |> 
  summarise(avg_ec = mean(ec_county),
            .by = state)

# A tibble: 51 × 2
   state                avg_ec
   <chr>                 <dbl>
 1 Alabama              NA    
 2 Alaska               NA    
 3 Arizona               0.692
 4 Arkansas              0.690
 5 California           NA    
 6 Colorado             NA    
 7 Connecticut           0.949
 8 Delaware              0.782
 9 District of Columbia  0.996
10 Florida               0.665
# ℹ 41 more rows
…
Note the NA problem! Can fix either by adding na.rm to the function calls or putting drop_na() earlier in the pipe.

Session 3

Add total state population to the calculation of state-level statistics. Send them to rooms to do this for themselves. Bring them back.

x |> 
  drop_na() |> 
  mutate(state = str_replace(county_name, ".*, ", "")) |> 
  summarise(pop_state = sum(pop2018),
            avg_ec = mean(ec_county),
            .by = state)

# A tibble: 51 × 3
   state                pop_state avg_ec
   <chr>                    <dbl>  <dbl>
 1 Alabama                4855194  0.595
 2 Alaska                  712389  0.977
 3 Arizona                6946685  0.692
 4 Arkansas               2990671  0.690
 5 California            39147614  0.807
 6 Colorado               5498538  0.954
 7 Connecticut            3581504  0.949
 8 Delaware                949495  0.782
 9 District of Columbia    684498  0.996
10 Florida               20598139  0.665
# ℹ 41 more rows
…
